22347250-6ff9-11ea-bc55-0242ac130003
22347462-6ff9-11ea-bc55-0242ac130003
22347552-6ff9-11ea-bc55-0242ac130003
2234782c-6ff9-11ea-bc55-0242ac130003
223478fe-6ff9-11ea-bc55-0242ac130003
223479c6-6ff9-11ea-bc55-0242ac130003
22347a84-6ff9-11ea-bc55-0242ac130003
22347b42-6ff9-11ea-bc55-0242ac130003
22347c0a-6ff9-11ea-bc55-0242ac130003
22347dea-6ff9-11ea-bc55-0242ac130003
